[
  {
    "_id": "a61d8fb0-f8be-11e8-b475-e5512cb3a4e3",
    "_type": "dashboard",
    "_source": {
      "title": "Beers Dashboard",
      "hits": 0,
      "description": "",
      "panelsJSON": "[{\"gridData\":{\"h\":8,\"i\":\"1\",\"w\":3,\"x\":0,\"y\":0},\"id\":\"61a443b0-f8be-11e8-b475-e5512cb3a4e3\",\"panelIndex\":\"1\",\"type\":\"visualization\",\"version\":\"6.2.4\"},{\"gridData\":{\"h\":5,\"i\":\"2\",\"w\":9,\"x\":3,\"y\":3},\"id\":\"6cf47710-f8c0-11e8-b475-e5512cb3a4e3\",\"panelIndex\":\"2\",\"type\":\"visualization\",\"version\":\"6.2.4\"},{\"gridData\":{\"h\":3,\"i\":\"3\",\"w\":4,\"x\":3,\"y\":0},\"id\":\"f98f0870-f8c0-11e8-b475-e5512cb3a4e3\",\"panelIndex\":\"3\",\"type\":\"visualization\",\"version\":\"6.2.4\"},{\"gridData\":{\"h\":3,\"i\":\"4\",\"w\":5,\"x\":7,\"y\":0},\"id\":\"842b31c0-f8c1-11e8-b475-e5512cb3a4e3\",\"panelIndex\":\"4\",\"type\":\"visualization\",\"version\":\"6.2.4\"}]",
      "optionsJSON": "{\"darkTheme\":false,\"hidePanelTitles\":false,\"useMargins\":true}",
      "version": 1,
      "timeRestore": false,
      "kibanaSavedObjectMeta": {
        "searchSourceJSON": "{\"query\":{\"language\":\"lucene\",\"query\":\"\"},\"filter\":[],\"highlightAll\":true,\"version\":true}"
      }
    },
    "_meta": {
      "savedObjectVersion": 2
    }
  },
  {
    "_id": "61a443b0-f8be-11e8-b475-e5512cb3a4e3",
    "_type": "visualization",
    "_source": {
      "title": "TOP 5 Beer Styles",
      "visState": "{\"title\":\"TOP 5 Beer Styles\",\"type\":\"metric\",\"params\":{\"addTooltip\":true,\"addLegend\":false,\"type\":\"metric\",\"metric\":{\"percentageMode\":false,\"useRanges\":false,\"colorSchema\":\"Green to Red\",\"metricColorMode\":\"None\",\"colorsRange\":[{\"from\":0,\"to\":10000}],\"labels\":{\"show\":true},\"invertColors\":false,\"style\":{\"bgFill\":\"#000\",\"bgColor\":false,\"labelColor\":false,\"subText\":\"\",\"fontSize\":60}}},\"aggs\":[{\"id\":\"1\",\"enabled\":true,\"type\":\"count\",\"schema\":\"metric\",\"params\":{}},{\"id\":\"2\",\"enabled\":true,\"type\":\"terms\",\"schema\":\"group\",\"params\":{\"field\":\"style.keyword\",\"otherBucket\":false,\"otherBucketLabel\":\"Other\",\"missingBucket\":false,\"missingBucketLabel\":\"Missing\",\"size\":5,\"order\":\"desc\",\"orderBy\":\"1\"}}]}",
      "uiStateJSON": "{}",
      "description": "",
      "version": 1,
      "kibanaSavedObjectMeta": {
        "searchSourceJSON": "{\"index\":\"a5c6daa0-f8b2-11e8-b475-e5512cb3a4e3\",\"filter\":[],\"query\":{\"language\":\"lucene\",\"query\":\"\"}}"
      }
    },
    "_meta": {
      "savedObjectVersion": 2
    }
  },
  {
    "_id": "f98f0870-f8c0-11e8-b475-e5512cb3a4e3",
    "_type": "visualization",
    "_source": {
      "title": "TOP 5 Beer Styles in TOP 5 Countries",
      "visState": "{\"title\":\"TOP 5 Beer Styles in TOP 5 Countries\",\"type\":\"pie\",\"params\":{\"type\":\"pie\",\"addTooltip\":true,\"addLegend\":true,\"legendPosition\":\"right\",\"isDonut\":true,\"labels\":{\"show\":false,\"values\":true,\"last_level\":true,\"truncate\":100}},\"aggs\":[{\"id\":\"1\",\"enabled\":true,\"type\":\"count\",\"schema\":\"metric\",\"params\":{}},{\"id\":\"2\",\"enabled\":true,\"type\":\"terms\",\"schema\":\"segment\",\"params\":{\"field\":\"country.keyword\",\"otherBucket\":false,\"otherBucketLabel\":\"Other\",\"missingBucket\":false,\"missingBucketLabel\":\"Missing\",\"size\":5,\"order\":\"desc\",\"orderBy\":\"1\"}},{\"id\":\"3\",\"enabled\":true,\"type\":\"terms\",\"schema\":\"segment\",\"params\":{\"field\":\"style.keyword\",\"otherBucket\":false,\"otherBucketLabel\":\"Other\",\"missingBucket\":false,\"missingBucketLabel\":\"Missing\",\"size\":5,\"order\":\"desc\",\"orderBy\":\"_term\"}}]}",
      "uiStateJSON": "{}",
      "description": "",
      "version": 1,
      "kibanaSavedObjectMeta": {
        "searchSourceJSON": "{\"index\":\"a5c6daa0-f8b2-11e8-b475-e5512cb3a4e3\",\"filter\":[],\"query\":{\"query\":\"\",\"language\":\"lucene\"}}"
      }
    },
    "_meta": {
      "savedObjectVersion": 2
    }
  },
  {
    "_id": "842b31c0-f8c1-11e8-b475-e5512cb3a4e3",
    "_type": "visualization",
    "_source": {
      "title": "Available and Unavailable Beers",
      "visState": "{\"title\":\"Available and Unavailable Beers\",\"type\":\"histogram\",\"params\":{\"type\":\"histogram\",\"grid\":{\"categoryLines\":false,\"style\":{\"color\":\"#eee\"}},\"categoryAxes\":[{\"id\":\"CategoryAxis-1\",\"type\":\"category\",\"position\":\"bottom\",\"show\":true,\"style\":{},\"scale\":{\"type\":\"linear\"},\"labels\":{\"show\":true,\"truncate\":100},\"title\":{}}],\"valueAxes\":[{\"id\":\"ValueAxis-1\",\"name\":\"LeftAxis-1\",\"type\":\"value\",\"position\":\"left\",\"show\":true,\"style\":{},\"scale\":{\"type\":\"linear\",\"mode\":\"normal\"},\"labels\":{\"show\":true,\"rotate\":0,\"filter\":false,\"truncate\":100},\"title\":{\"text\":\"Count\"}}],\"seriesParams\":[{\"show\":\"true\",\"type\":\"histogram\",\"mode\":\"stacked\",\"data\":{\"label\":\"Count\",\"id\":\"1\"},\"valueAxis\":\"ValueAxis-1\",\"drawLinesBetweenPoints\":true,\"showCircles\":true}],\"addTooltip\":true,\"addLegend\":true,\"legendPosition\":\"right\",\"times\":[],\"addTimeMarker\":false},\"aggs\":[{\"id\":\"1\",\"enabled\":true,\"type\":\"count\",\"schema\":\"metric\",\"params\":{}},{\"id\":\"2\",\"enabled\":true,\"type\":\"terms\",\"schema\":\"segment\",\"params\":{\"field\":\"retired\",\"otherBucket\":false,\"otherBucketLabel\":\"Other\",\"missingBucket\":false,\"missingBucketLabel\":\"Missing\",\"size\":5,\"order\":\"desc\",\"orderBy\":\"1\",\"customLabel\":\"Available\"}}]}",
      "uiStateJSON": "{}",
      "description": "",
      "version": 1,
      "kibanaSavedObjectMeta": {
        "searchSourceJSON": "{\"index\":\"a5c6daa0-f8b2-11e8-b475-e5512cb3a4e3\",\"filter\":[],\"query\":{\"query\":\"\",\"language\":\"lucene\"}}"
      }
    },
    "_meta": {
      "savedObjectVersion": 2
    }
  },
  {
    "_id": "6cf47710-f8c0-11e8-b475-e5512cb3a4e3",
    "_type": "visualization",
    "_source": {
      "title": "Beer Styles in Countries",
      "visState": "{\"title\":\"Beer Styles in Countries\",\"type\":\"heatmap\",\"params\":{\"addLegend\":true,\"addTooltip\":true,\"colorSchema\":\"Greens\",\"colorsNumber\":10,\"colorsRange\":[{\"from\":0,\"to\":100},{\"from\":100,\"to\":200},{\"from\":200,\"to\":300},{\"from\":300,\"to\":400},{\"from\":400,\"to\":500},{\"from\":500,\"to\":600},{\"from\":600,\"to\":700},{\"from\":700,\"to\":100},{\"from\":800,\"to\":1500},{\"from\":1500,\"to\":8000},{\"from\":8000,\"to\":100000}],\"enableHover\":false,\"invertColors\":false,\"legendPosition\":\"right\",\"percentageMode\":false,\"setColorRange\":true,\"times\":[],\"type\":\"heatmap\",\"valueAxes\":[{\"id\":\"ValueAxis-1\",\"labels\":{\"color\":\"#555\",\"rotate\":0,\"show\":false},\"scale\":{\"defaultYExtents\":false,\"type\":\"linear\"},\"show\":false,\"type\":\"value\"}]},\"aggs\":[{\"id\":\"1\",\"enabled\":true,\"type\":\"count\",\"schema\":\"metric\",\"params\":{}},{\"id\":\"2\",\"enabled\":true,\"type\":\"terms\",\"schema\":\"segment\",\"params\":{\"field\":\"country.keyword\",\"otherBucket\":false,\"otherBucketLabel\":\"Other\",\"missingBucket\":false,\"missingBucketLabel\":\"Missing\",\"size\":10,\"order\":\"desc\",\"orderBy\":\"1\",\"customLabel\":\"Country\"}},{\"id\":\"3\",\"enabled\":true,\"type\":\"terms\",\"schema\":\"group\",\"params\":{\"field\":\"style.keyword\",\"otherBucket\":false,\"otherBucketLabel\":\"Other\",\"missingBucket\":false,\"missingBucketLabel\":\"Missing\",\"size\":5,\"order\":\"desc\",\"orderBy\":\"1\",\"customLabel\":\"Beer Style\"}}]}",
      "uiStateJSON": "{\"vis\":{\"defaultColors\":{\"0 - 100\":\"rgb(247,252,245)\",\"100 - 200\":\"rgb(233,247,228)\",\"200 - 300\":\"rgb(211,238,205)\",\"300 - 400\":\"rgb(184,227,177)\",\"400 - 500\":\"rgb(152,213,148)\",\"500 - 600\":\"rgb(116,196,118)\",\"600 - 700\":\"rgb(75,176,98)\",\"700 - 100\":\"rgb(47,152,79)\",\"800 - 1,500\":\"rgb(21,127,59)\",\"1,500 - 8,000\":\"rgb(0,100,40)\",\"8,000 - 100,000\":\"rgb(0,68,27)\"}}}",
      "description": "",
      "version": 1,
      "kibanaSavedObjectMeta": {
        "searchSourceJSON": "{\"index\":\"a5c6daa0-f8b2-11e8-b475-e5512cb3a4e3\",\"filter\":[],\"query\":{\"language\":\"lucene\",\"query\":\"\"}}"
      }
    },
    "_meta": {
      "savedObjectVersion": 2
    }
  }
]